{
    "tests": [
        {
            "output": {
                "passfail": "failed"
            },
            "traceback": "Traceback (most recent call last):\n  File \"/home/vmuser_mokvwprb/CVResult.py\", line 29, in func_wrapper\n    ans = func(self)\n  File \"/home/vmuser_mokvwprb/verify_student_output_test.py\", line 32, in handler\n    queue.put((None, testcase(obj)))\n  File \"run.py\", line 290, in test_create_combined_img\n    comb_img = ps4.create_combined_img(g_pyr_copy)\n  File \"/home/vmuser_mokvwprb/workspace/ps4.py\", line 315, in create_combined_img\n    raise NotImplementedError\nNotImplementedError\n",
            "description": "Testing create_combined_img (5 points)"
        },
        {
            "output": {
                "passfail": "failed"
            },
            "traceback": "Traceback (most recent call last):\n  File \"/home/vmuser_mokvwprb/CVResult.py\", line 29, in func_wrapper\n    ans = func(self)\n  File \"/home/vmuser_mokvwprb/verify_student_output_test.py\", line 32, in handler\n    queue.put((None, testcase(obj)))\n  File \"run.py\", line 235, in test_laplacian_pyramid\n    l_pyr = ps4.laplacian_pyramid(g_pyr_copy)\n  File \"/home/vmuser_mokvwprb/workspace/ps4.py\", line 389, in laplacian_pyramid\n    g_pyr = g_pyr.copy()\nAttributeError: 'list' object has no attribute 'copy'\n",
            "description": "Testing laplacian_pyramid (10 points)"
        },
        {
            "output": {
                "passfail": "failed"
            },
            "traceback": "Traceback (most recent call last):\n  File \"/home/vmuser_mokvwprb/CVResult.py\", line 29, in func_wrapper\n    ans = func(self)\n  File \"/home/vmuser_mokvwprb/verify_student_output_test.py\", line 32, in handler\n    queue.put((None, testcase(obj)))\n  File \"run.py\", line 415, in test_hierarchical_LK\n    cv2.BORDER_REFLECT101)\n  File \"/home/vmuser_mokvwprb/workspace/ps4.py\", line 506, in hierarchical_lk\n    raise NotImplementedError\nNotImplementedError\n",
            "description": "Testing hierarchical_LK (25 points)"
        },
        {
            "output": {
                "passfail": "passed"
            },
            "traceback": "",
            "description": "Testing optic_flow_LK (25 points)"
        },
        {
            "output": {
                "passfail": "passed"
            },
            "traceback": "",
            "description": "Testing expand (10 points)"
        },
        {
            "output": {
                "passfail": "passed"
            },
            "traceback": "",
            "description": "Testing reduce (10 points)"
        },
        {
            "output": {
                "passfail": "passed"
            },
            "traceback": "",
            "description": "Testing gaussian_pyramid (10 points)"
        },
        {
            "output": {
                "passfail": "passed"
            },
            "traceback": "",
            "description": "Testing warp (5 points)"
        }
    ],
    "unauthorized_lib_calls": []
}