{
    "tests": [
        {
            "output": {
                "passfail": "failed"
            },
            "traceback": "Traceback (most recent call last):\n  File \"/home/vmuser_keharqps/CVResult.py\", line 29, in func_wrapper\n    ans = func(self)\n  File \"run.py\", line 271, in test_appearance_particle_filter\n    pf.process(frame)\n  File \"/home/vmuser_keharqps/workspace/ps5.py\", line 506, in process\n    raise NotImplementedError\nNotImplementedError\n",
            "description": "Test Appearance Particle Filter (20 points)"
        },
        {
            "output": {
                "passfail": "passed"
            },
            "traceback": "",
            "description": "Test base Kalman filter (20 points)"
        },
        {
            "output": {
                "passfail": "passed"
            },
            "traceback": "",
            "description": "Test base Kalman filter with measurement NOISE_1 (20 points)"
        },
        {
            "output": {
                "passfail": "passed"
            },
            "traceback": "",
            "description": "Test base Kalman filter with measurement NOISE_2 (20 points)"
        },
        {
            "output": {
                "passfail": "passed"
            },
            "traceback": "",
            "description": "Test base particle_filter (20 points)"
        }
    ],
    "unauthorized_lib_calls": []
}