{
    "tests": [
        {
            "output": {
                "passfail": "failed"
            },
            "traceback": "Traceback (most recent call last):\n  File \"/home/vmuser_zahsjuyb/CVResult.py\", line 29, in func_wrapper\n    ans = func(self)\n  File \"run.py\", line 263, in test_draw_box\n    'uint8'), markers, 1)\n  File \"/home/vmuser_zahsjuyb/workspace/ps3.py\", line 191, in draw_box\n    raise NotImplementedError\nNotImplementedError\n",
            "description": "Test for draw_box (5 points)"
        },
        {
            "output": {
                "passfail": "failed"
            },
            "traceback": "Traceback (most recent call last):\n  File \"/home/vmuser_zahsjuyb/CVResult.py\", line 29, in func_wrapper\n    ans = func(self)\n  File \"run.py\", line 316, in test_get_corners_list\n    clist = ps3.get_corners_list(np.zeros((self.height, self.width)))\n  File \"/home/vmuser_zahsjuyb/workspace/ps3.py\", line 68, in get_corners_list\n    raise NotImplementedError\nNotImplementedError\n",
            "description": "Test for get_corners_list (10 points)"
        },
        {
            "output": {
                "passfail": "failed"
            },
            "traceback": "Traceback (most recent call last):\n  File \"/home/vmuser_zahsjuyb/CVResult.py\", line 29, in func_wrapper\n    ans = func(self)\n  File \"run.py\", line 367, in test_projective_geometry\n    self.test_grad_image.copy(), black_bg, self.homography)\n  File \"/home/vmuser_zahsjuyb/workspace/ps3.py\", line 210, in project_imageA_onto_imageB\n    raise NotImplementedError\nNotImplementedError\n",
            "description": "Test for project_imageA_onto_imageB (20 points)"
        },
        {
            "output": {
                "passfail": "failed"
            },
            "traceback": "Traceback (most recent call last):\n  File \"/home/vmuser_zahsjuyb/CVResult.py\", line 29, in func_wrapper\n    ans = func(self)\n  File \"run.py\", line 337, in test_solving_for_homography\n    self.marker_positions)\n  File \"/home/vmuser_zahsjuyb/workspace/ps3.py\", line 233, in find_four_point_transform\n    raise NotImplementedError\nNotImplementedError\n",
            "description": "Test for find_four_point_transform (20 points)"
        },
        {
            "output": {
                "passfail": "failed"
            },
            "traceback": "Traceback (most recent call last):\n  File \"/home/vmuser_zahsjuyb/CVResult.py\", line 29, in func_wrapper\n    ans = func(self)\n  File \"run.py\", line 395, in test_frame_generator\n    image = image_gen.next()\n  File \"/home/vmuser_zahsjuyb/workspace/ps3.py\", line 251, in video_frame_generator\n    while video.isOpened():\nAttributeError: 'NoneType' object has no attribute 'isOpened'\n",
            "description": "Test for video_frame_generator (5 points)"
        },
        {
            "output": {
                "passfail": "failed"
            },
            "traceback": "Traceback (most recent call last):\n  File \"/home/vmuser_zahsjuyb/CVResult.py\", line 29, in func_wrapper\n    ans = func(self)\n  File \"run.py\", line 191, in test_detection_in_simulated_noisy_circles\n    self.assertTrue(x_dist_test and y_dist_test, msg=error_msg)\nAssertionError: Expected (79.0,47.0)  with acceptable distance 2 but got (43.0,140.0)\n",
            "description": "Test for find_markers with noise: just circles (15 points)"
        },
        {
            "output": {
                "passfail": "failed"
            },
            "traceback": "Traceback (most recent call last):\n  File \"/home/vmuser_zahsjuyb/CVResult.py\", line 29, in func_wrapper\n    ans = func(self)\n  File \"run.py\", line 150, in test_detection_in_simulated_scene\n    self.assertTrue(x_dist_test and y_dist_test, msg=error_msg)\nAssertionError: Expected (129.0,52.0)  with acceptable distance 2 but got (89.0,141.0)\n",
            "description": "Test for find_markers on empty background (10 points)"
        },
        {
            "output": {
                "passfail": "failed"
            },
            "traceback": "Traceback (most recent call last):\n  File \"/home/vmuser_zahsjuyb/CVResult.py\", line 29, in func_wrapper\n    ans = func(self)\n  File \"run.py\", line 244, in test_detection_in_simulated_with_gaussian_and_circles\n    self.assertTrue(x_dist_test and y_dist_test, msg=error_msg)\nAssertionError: Expected (309.0,59.0)  with acceptable distance 2 but got (246.0,153.0)\n",
            "description": "Test for find_markers with noise: circles + gaussian (15 points)"
        }
    ],
    "unauthorized_lib_calls": []
}